G04 DipTrace 3.2.0.1*
G04 BottomSilk.gbr*
%MOIN*%
G04 #@! TF.FileFunction,Legend,Bot*
G04 #@! TF.Part,Single*
%ADD10C,0.009843*%
%ADD48C,0.078732*%
%ADD49C,0.019677*%
%ADD138C,0.004632*%
%FSLAX26Y26*%
G04*
G70*
G90*
G75*
G01*
G04 BotSilk*
%LPD*%
X4591343Y1033862D2*
D10*
X4071657D1*
Y1368507D1*
X4591343D1*
Y1033862D1*
X4174462Y1821657D2*
X4076037D1*
Y2541343D1*
X4174462D1*
Y1821657D1*
X4609981Y2308456D2*
Y2056513D1*
X4358037D2*
Y2308456D1*
X4440700D2*
X4527318D1*
X4413137Y2182484D2*
G02X4413137Y2182484I70872J0D01*
G01*
D48*
X4484022D3*
X4361943Y2131309D2*
D10*
X4369828D1*
Y2233659D1*
X4358037D2*
X4369828D1*
X4609981Y2131309D2*
X4594260D1*
Y2233659D1*
X4609981D1*
X4358037Y2308456D2*
X4373759D1*
X4594260D2*
X4609981D1*
X4358037Y2056513D2*
X4373759D1*
X4436745D2*
X4531274D1*
X4594260D2*
X4609981D1*
D49*
X4367876Y2353735D3*
X4359268Y1592044D2*
D10*
Y1843987D1*
X4611212D2*
Y1592044D1*
X4528549D2*
X4441931D1*
X4414368Y1718016D2*
G02X4414368Y1718016I70872J0D01*
G01*
D48*
X4485228D3*
X4607307Y1769191D2*
D10*
X4599421D1*
Y1666841D1*
X4611212D2*
X4599421D1*
X4359268Y1769191D2*
X4374990D1*
Y1666841D1*
X4359268D1*
X4611212Y1592044D2*
X4595491D1*
X4374990D2*
X4359268D1*
X4611212Y1843987D2*
X4595491D1*
X4532505D2*
X4437976D1*
X4374990D2*
X4359268D1*
D49*
X4601374Y1546765D3*
X4611212Y2768987D2*
D10*
Y2517044D1*
X4359268D2*
Y2768987D1*
X4441931D2*
X4528549D1*
X4414368Y2643016D2*
G02X4414368Y2643016I70872J0D01*
G01*
D48*
X4485253D3*
X4363173Y2591841D2*
D10*
X4371059D1*
Y2694191D1*
X4359268D2*
X4371059D1*
X4611212Y2591841D2*
X4595491D1*
Y2694191D1*
X4611212D1*
X4359268Y2768987D2*
X4374990D1*
X4595491D2*
X4611212D1*
X4359268Y2517044D2*
X4374990D1*
X4437976D2*
X4532505D1*
X4595491D2*
X4611212D1*
D49*
X4369107Y2814266D3*
X4031480Y481105D2*
D10*
Y2881105D1*
X3331420Y481105D2*
Y2881105D1*
Y481105D2*
X4031480D1*
X3431470Y981105D2*
Y481105D1*
Y981105D2*
X3931430D1*
Y481105D1*
X3331420Y2881105D2*
X4031480D1*
X3531375Y2931105D2*
X3831380D1*
Y2731105D1*
X3531375D1*
Y2931105D1*
X4592607Y1013625D2*
D138*
Y990678D1*
X4594033Y986367D1*
X4595492Y984941D1*
X4598344Y983481D1*
X4601229D1*
X4604081Y984941D1*
X4605507Y986367D1*
X4606966Y990678D1*
Y993529D1*
X4566132Y1009314D2*
X4567558Y1012166D1*
X4571869Y1013592D1*
X4574721D1*
X4579032Y1012166D1*
X4581917Y1007855D1*
X4583343Y1000692D1*
Y993529D1*
X4581917Y987792D1*
X4579032Y984907D1*
X4574721Y983481D1*
X4573295D1*
X4569017Y984907D1*
X4566132Y987792D1*
X4564706Y992103D1*
Y993529D1*
X4566132Y997840D1*
X4569017Y1000692D1*
X4573295Y1002118D1*
X4574721D1*
X4579032Y1000692D1*
X4581917Y997840D1*
X4583343Y993529D1*
X4546821Y1013592D2*
X4551132Y1012166D1*
X4554017Y1007855D1*
X4555443Y1000692D1*
Y996381D1*
X4554017Y989218D1*
X4551132Y984907D1*
X4546821Y983481D1*
X4543969D1*
X4539658Y984907D1*
X4536806Y989218D1*
X4535347Y996381D1*
Y1000692D1*
X4536806Y1007855D1*
X4539658Y1012166D1*
X4543969Y1013592D1*
X4546821D1*
X4536806Y1007855D2*
X4554017Y989218D1*
X4524624Y1006429D2*
Y1007855D1*
X4523198Y1010740D1*
X4521772Y1012166D1*
X4518887Y1013592D1*
X4513150D1*
X4510298Y1012166D1*
X4508872Y1010740D1*
X4507413Y1007855D1*
Y1005003D1*
X4508872Y1002118D1*
X4511724Y997840D1*
X4526083Y983481D1*
X4505987D1*
X4032103Y2211180D2*
X4055051D1*
X4059362Y2212606D1*
X4060788Y2214065D1*
X4062247Y2216917D1*
Y2219802D1*
X4060788Y2222654D1*
X4059362Y2224080D1*
X4055051Y2225539D1*
X4052199D1*
X4036414Y2184706D2*
X4033562Y2186132D1*
X4032136Y2190443D1*
Y2193295D1*
X4033562Y2197606D1*
X4037873Y2200491D1*
X4045036Y2201917D1*
X4052199D1*
X4057936Y2200491D1*
X4060821Y2197606D1*
X4062247Y2193295D1*
Y2191869D1*
X4060821Y2187591D1*
X4057936Y2184706D1*
X4053625Y2183280D1*
X4052199D1*
X4047888Y2184706D1*
X4045036Y2187591D1*
X4043610Y2191869D1*
Y2193295D1*
X4045036Y2197606D1*
X4047888Y2200491D1*
X4052199Y2201917D1*
X4032136Y2165394D2*
X4033562Y2169705D1*
X4037873Y2172590D1*
X4045036Y2174016D1*
X4049347D1*
X4056510Y2172590D1*
X4060821Y2169705D1*
X4062247Y2165394D1*
Y2162542D1*
X4060821Y2158231D1*
X4056510Y2155379D1*
X4049347Y2153920D1*
X4045036D1*
X4037873Y2155380D1*
X4033562Y2158231D1*
X4032136Y2162542D1*
Y2165394D1*
X4037873Y2155380D2*
X4056510Y2172590D1*
X4037873Y2144657D2*
X4036414Y2141772D1*
X4032136Y2137461D1*
X4062247D1*
X4517271Y2411083D2*
X4520123Y2413969D1*
X4524434Y2415394D1*
X4530171D1*
X4534482Y2413969D1*
X4537367Y2411083D1*
Y2408232D1*
X4535908Y2405346D1*
X4534482Y2403921D1*
X4531630Y2402495D1*
X4523008Y2399609D1*
X4520123Y2398184D1*
X4518697Y2396724D1*
X4517271Y2393873D1*
Y2389561D1*
X4520123Y2386710D1*
X4524434Y2385250D1*
X4530171D1*
X4534482Y2386710D1*
X4537367Y2389561D1*
X4490796Y2411083D2*
X4492222Y2413935D1*
X4496533Y2415361D1*
X4499385D1*
X4503696Y2413935D1*
X4506581Y2409624D1*
X4508007Y2402461D1*
Y2395298D1*
X4506581Y2389561D1*
X4503696Y2386676D1*
X4499385Y2385250D1*
X4497959D1*
X4493682Y2386676D1*
X4490796Y2389561D1*
X4489371Y2393873D1*
Y2395298D1*
X4490796Y2399609D1*
X4493682Y2402461D1*
X4497959Y2403887D1*
X4499385D1*
X4503696Y2402461D1*
X4506581Y2399609D1*
X4508007Y2395298D1*
X4471485Y2415361D2*
X4475796Y2413935D1*
X4478681Y2409624D1*
X4480107Y2402461D1*
Y2398150D1*
X4478681Y2390987D1*
X4475796Y2386676D1*
X4471485Y2385250D1*
X4468633D1*
X4464322Y2386676D1*
X4461470Y2390987D1*
X4460011Y2398150D1*
Y2402461D1*
X4461470Y2409624D1*
X4464322Y2413935D1*
X4468633Y2415361D1*
X4471485D1*
X4461470Y2409624D2*
X4478681Y2390987D1*
X4449288Y2408198D2*
Y2409624D1*
X4447862Y2412509D1*
X4446436Y2413935D1*
X4443551Y2415361D1*
X4437814D1*
X4434962Y2413935D1*
X4433536Y2412509D1*
X4432077Y2409624D1*
Y2406772D1*
X4433536Y2403887D1*
X4436388Y2399609D1*
X4450747Y2385250D1*
X4430651D1*
X4518502Y1946615D2*
X4521354Y1949500D1*
X4525665Y1950926D1*
X4531402D1*
X4535713Y1949500D1*
X4538598Y1946615D1*
Y1943763D1*
X4537139Y1940878D1*
X4535713Y1939452D1*
X4532861Y1938026D1*
X4524239Y1935141D1*
X4521354Y1933715D1*
X4519928Y1932256D1*
X4518502Y1929404D1*
Y1925093D1*
X4521354Y1922241D1*
X4525665Y1920782D1*
X4531402D1*
X4535713Y1922241D1*
X4538598Y1925093D1*
X4492027Y1946615D2*
X4493453Y1949467D1*
X4497764Y1950893D1*
X4500616D1*
X4504927Y1949467D1*
X4507812Y1945156D1*
X4509238Y1937993D1*
Y1930830D1*
X4507812Y1925093D1*
X4504927Y1922208D1*
X4500616Y1920782D1*
X4499190D1*
X4494913Y1922208D1*
X4492027Y1925093D1*
X4490601Y1929404D1*
Y1930830D1*
X4492027Y1935141D1*
X4494913Y1937993D1*
X4499190Y1939419D1*
X4500616D1*
X4504927Y1937993D1*
X4507812Y1935141D1*
X4509238Y1930830D1*
X4472716Y1950893D2*
X4477027Y1949467D1*
X4479912Y1945156D1*
X4481338Y1937993D1*
Y1933682D1*
X4479912Y1926519D1*
X4477027Y1922208D1*
X4472716Y1920782D1*
X4469864D1*
X4465553Y1922208D1*
X4462701Y1926519D1*
X4461242Y1933682D1*
Y1937993D1*
X4462701Y1945156D1*
X4465553Y1949467D1*
X4469864Y1950893D1*
X4472716D1*
X4462701Y1945156D2*
X4479912Y1926519D1*
X4449093Y1950893D2*
X4433342D1*
X4441930Y1939419D1*
X4437619D1*
X4434767Y1937993D1*
X4433342Y1936567D1*
X4431882Y1932256D1*
Y1929404D1*
X4433342Y1925093D1*
X4436193Y1922208D1*
X4440504Y1920782D1*
X4444815D1*
X4449093Y1922208D1*
X4450519Y1923667D1*
X4451978Y1926519D1*
X4512052Y2871615D2*
X4514904Y2874500D1*
X4519215Y2875926D1*
X4524952D1*
X4529263Y2874500D1*
X4532148Y2871615D1*
Y2868763D1*
X4530689Y2865878D1*
X4529263Y2864452D1*
X4526411Y2863026D1*
X4517789Y2860141D1*
X4514904Y2858715D1*
X4513478Y2857256D1*
X4512052Y2854404D1*
Y2850093D1*
X4514904Y2847241D1*
X4519215Y2845782D1*
X4524952D1*
X4529263Y2847241D1*
X4532148Y2850093D1*
X4485577Y2871615D2*
X4487003Y2874467D1*
X4491314Y2875893D1*
X4494166D1*
X4498477Y2874467D1*
X4501362Y2870156D1*
X4502788Y2862993D1*
Y2855830D1*
X4501362Y2850093D1*
X4498477Y2847208D1*
X4494166Y2845782D1*
X4492740D1*
X4488463Y2847208D1*
X4485577Y2850093D1*
X4484152Y2854404D1*
Y2855830D1*
X4485577Y2860141D1*
X4488463Y2862993D1*
X4492740Y2864419D1*
X4494166D1*
X4498477Y2862993D1*
X4501362Y2860141D1*
X4502788Y2855830D1*
X4466266Y2875893D2*
X4470577Y2874467D1*
X4473462Y2870156D1*
X4474888Y2862993D1*
Y2858682D1*
X4473462Y2851519D1*
X4470577Y2847208D1*
X4466266Y2845782D1*
X4463414D1*
X4459103Y2847208D1*
X4456251Y2851519D1*
X4454792Y2858682D1*
Y2862993D1*
X4456251Y2870156D1*
X4459103Y2874467D1*
X4463414Y2875893D1*
X4466266D1*
X4456251Y2870156D2*
X4473462Y2851519D1*
X4445528Y2870156D2*
X4442643Y2871615D1*
X4438332Y2875893D1*
Y2845782D1*
M02*
